Ed25519_Shake128/test/simulation.log
Time:                    0 | State:  0 | Done: 0
--- TEST CASE 1: Empty Message (0 bytes) ---
Time:               205000 | State:  2 | Done: 0
[Time               525000] SHAKE DONE asserted. DOUT: 3d1bb97b22be70a9565db47718a31cc329bced36f73a894b1d105a213c2813fe7378f018726382c28731e39730f9391ebbd71496e4adcaf67a09e66b70895726
            DIN: 000000000000000000000000000000000000000000000000000000000000000000000000000000000000000000000000000000000000000000000000000000000000000000000000000000000000000000000000000000000000000000000000607fae1c03ac3b701969327b69c54944c42cec92f44a84ba605afdef9db1619d
Time:               535000 | State:  3 | Done: 0
Time:               545000 | State:  4 | Done: 0
Time:           2745885000 | State:  5 | Done: 0
Time:           3101515000 | State:  6 | Done: 0
Time:           3102205000 | State: 19 | Done: 0
Time:           3102215000 | State: 20 | Done: 0
Time:           3102905000 | State:  8 | Done: 0
[Time           3103225000] SHAKE DONE asserted. DOUT: 1bdd74a410456250fdc79c26e9dfd1fe3d6d6a85f00d190c1b4af42f81f9cfffee3580351b57652cefefe5072b9b25c4d67eefb662a123a3a71d2e23629ab197
            DIN: 0000000000000000000000000000000000000000000000000000000000000000000000000000000000000000000000000000000000000000000000000000000000000000000000000000000000000000000000000000000000000000000000003d1bb97b22be70a9565db47718a31cc329bced36f73a894b1d105a213c2813fe
Time:           3103235000 | State:  9 | Done: 0
Time:           3113505000 | State: 10 | Done: 0
Time:           3113515000 | State: 25 | Done: 0
Time:           3113525000 | State: 11 | Done: 0
Time:           5887575000 | State: 12 | Done: 0
Time:           6243205000 | State: 13 | Done: 0
Time:           6243895000 | State: 21 | Done: 0
Time:           6243905000 | State: 22 | Done: 0
Time:           6244595000 | State: 15 | Done: 0
[Time           6244915000] SHAKE DONE asserted. DOUT: 7cf8ac3440654cd97eda60a9dca414652b2415cdacb9ba1cfa4783438aa5abfdc0c39502da0613dc4a8af276b0e51ff568e2fcb1f8d4569f1b93c113a7b76838
            DIN: 00000000000000000000000000000000000000000000000000000000000000000000000000000000000000000000000000000000000000000000000000000000a7ddf588092982022efc4cebc3744b736030f76520541120acf2e083f8dfc564e89da6a271f08a693f2689f8ba15f1efe20bb1c2d9724f4a8d903a1221d01f2d
Time:           6244925000 | State: 16 | Done: 0
Time:           6255195000 | State: 17 | Done: 0
Time:           6268085000 | State: 18 | Done: 0
Time:           6268095000 | State: 23 | Done: 1
Expected PubKey: 64c5dff883e0f2ac2011542065f73060734b74c3eb4cfc2e0282290988f5dda7
Actual   PubKey: a7ddf588092982022efc4cebc3744b736030f76520541120acf2e083f8dfc564
Expected Sig R: e89da6a271f08a693f2689f8ba15f1efe20bb1c2d9724f4a8d903a1221d01f2d
Actual   Sig R: e89da6a271f08a693f2689f8ba15f1efe20bb1c2d9724f4a8d903a1221d01f2d
Expected Sig S: 051bb9bd5ec90348ad23aa167f645e67d5c9bee6160a10d44aaf262045d7ad7c
Actual   Sig S: 051bb9bd5ec90348ad23aa167f645e67d5c9bee6160a10d44aaf262045d7ad7c
>> PubKey Check: PASS
>> TC1 Result: PASS (All checks passed)
Time:           6268105000 | State:  0 | Done: 1
Time:           6268115000 | State:  0 | Done: 0

--- TEST CASE 2: 1-byte Message (0x72) ---
Time:           6268245000 | State:  2 | Done: 0
[Time           6268565000] SHAKE DONE asserted. DOUT: 1cc4309e0bc56e72e2ee2554e7db8e2fe92db2fd8ec9cc9edeb1bb90c8a3908e5274819d281f8e2baac1d87615f19b3edf88a69bca7545045b041c7618d238d7
            DIN: 000000000000000000000000000000000000000000000000000000000000000000000000000000000000000000000000000000000000000000000000000000000000000000000000000000000000000000000000000000000000000000000000fba6b84fedf68cda24a6ab359f318a5b0f4e11ec46c3b69dda96ff289b08cd4c
Time:           6268575000 | State:  3 | Done: 0
Time:           6268585000 | State:  4 | Done: 0
Time:           8963665000 | State:  5 | Done: 0
Time:           9319295000 | State:  6 | Done: 0
Time:           9319985000 | State: 19 | Done: 0
Time:           9319995000 | State: 20 | Done: 0
Time:           9320685000 | State:  8 | Done: 0
[Time           9321005000] SHAKE DONE asserted. DOUT: aa778b8a9cdcfa9862387b8eb560e3c4251cfd09f387cafdc522342cb7d4f107a1cd47ac63f9b3862f05a8f67827ff14046dc40818be989cf238f3b092f5f4c0
            DIN: 0000000000000000000000000000000000000000000000000000000000000000000000000000000000000000000000000000000000000000000000000000000072000000000000000000000000000000000000000000000000000000000000001cc4309e0bc56e72e2ee2554e7db8e2fe92db2fd8ec9cc9edeb1bb90c8a3908e
Time:           9321015000 | State:  9 | Done: 0
Time:           9331285000 | State: 10 | Done: 0
Time:           9331295000 | State: 25 | Done: 0
Time:           9331305000 | State: 11 | Done: 0
Time:          12090995000 | State: 12 | Done: 0
Time:          12446625000 | State: 13 | Done: 0
Time:          12447315000 | State: 21 | Done: 0
Time:          12447325000 | State: 22 | Done: 0
Time:          12448015000 | State: 15 | Done: 0
[Time          12448335000] SHAKE DONE asserted. DOUT: 83d5e52bf689919cb36ebb302b7c954b989010859c806e63d55d924cb824875cd5552ce42a64672f939b0a00648a34bc604519b4d83f72225def7a9862191646
            DIN: 000000000000000000000000000000000000000000000000000000000000000000000000000000000000000000000000000000000000000000000000000000723dcb1e9de53cce8a3397e3bb26006ea0d25394ae1303ade06182934e43d49b2a9032f83f342930df871a1a2a769eee87af285a82106894a85d325d17ffac3ba3
Time:          12448345000 | State: 16 | Done: 0
Time:          12458615000 | State: 17 | Done: 0
Time:          12471505000 | State: 18 | Done: 0
Time:          12471515000 | State: 23 | Done: 1
Expected PubKey: 2a9bd4434e938261e0ad0313ae9453d2a06e0026bbe397338ace3ce59d1ecb3d
Actual   PubKey: 3dcb1e9de53cce8a3397e3bb26006ea0d25394ae1303ade06182934e43d49b2a
Expected Sig R: 9032f83f342930df871a1a2a769eee87af285a82106894a85d325d17ffac3ba3
Actual   Sig R: 9032f83f342930df871a1a2a769eee87af285a82106894a85d325d17ffac3ba3
Expected Sig S: 07adf8a1385998de6588da1ce8c35a7317b1695f202b76ce19eac250753a0a04
Actual   Sig S: 07adf8a1385998de6588da1ce8c35a7317b1695f202b76ce19eac250753a0a04
>> PubKey Check: PASS
>> TC2 Result: PASS (All checks passed)
Time:          12471525000 | State:  0 | Done: 1
Time:          12471535000 | State:  0 | Done: 0

--- TEST CASE 3: 2-byte Message (0xaf82) ---
Time:          12471665000 | State:  2 | Done: 0
[Time          12471985000] SHAKE DONE asserted. DOUT: 9e7b3b01a536248c36d13a580409fadb3c8dec578a221bad8b8304ce057e50a1106ab682a49ae001164a2ec935e67922d567540c23119ecac679ae9511a3d276
            DIN: 000000000000000000000000000000000000000000000000000000000000000000000000000000000000000000000000000000000000000000000000000000000000000000000000000000000000000000000000000000000000000000000000f758440b2e3ace854b096f073585d366b1b7dc312f44b7ed7b839f3ff48daac5
Time:          12471995000 | State:  3 | Done: 0
Time:          12472005000 | State:  4 | Done: 0
Time:          15124005000 | State:  5 | Done: 0
Time:          15479635000 | State:  6 | Done: 0
Time:          15480325000 | State: 19 | Done: 0
Time:          15480335000 | State: 20 | Done: 0
Time:          15481025000 | State:  8 | Done: 0
[Time          15481345000] SHAKE DONE asserted. DOUT: f3631a0cfd0c3021fb1f03ed4d8b5405cbc09832c970eab69c41defbd053927500c851f705270f4354efaf6db95b81e605357787a2b7103053847bdb90b0f06d
            DIN: 0000000000000000000000000000000000000000000000000000000000000000000000000000000000000000000000000000000000000000000000000000000082af0000000000000000000000000000000000000000000000000000000000009e7b3b01a536248c36d13a580409fadb3c8dec578a221bad8b8304ce057e50a1
Time:          15481355000 | State:  9 | Done: 0
Time:          15491625000 | State: 10 | Done: 0
Time:          15491635000 | State: 25 | Done: 0
Time:          15491645000 | State: 11 | Done: 0
Time:          18251335000 | State: 12 | Done: 0
Time:          18606965000 | State: 13 | Done: 0
Time:          18607655000 | State: 21 | Done: 0
Time:          18607665000 | State: 22 | Done: 0
Time:          18608355000 | State: 15 | Done: 0
[Time          18608675000] SHAKE DONE asserted. DOUT: 47ba2a5c5a8b21c74abce5e9498fddcd7466b86446243cae5e13b306c21998ddf85921b6fc95d4a91a91645fb9194f8176cda15dee2fba8f9aec37f10d7b9aec
            DIN: 0000000000000000000000000000000000000000000000000000000000000000000000000000000000000000000000000000000000000000000000000000af82056c09e7db2a99ced40281c5976629691c2a4a38936422d06a533a10b5736fe5ef3d3d84744c6d77e17f08998d99be604c941527359ca63cb530b7f9303f88ce
Time:          18608685000 | State: 16 | Done: 0
Time:          18618955000 | State: 17 | Done: 0
Time:          18631845000 | State: 18 | Done: 0
Time:          18631855000 | State: 23 | Done: 1
Expected PubKey: e56f73b5103a536ad0226493384a2a1c69296697c58102d4ce992adbe7096c05
Actual   PubKey: 056c09e7db2a99ced40281c5976629691c2a4a38936422d06a533a10b5736fe5
Expected Sig R: ef3d3d84744c6d77e17f08998d99be604c941527359ca63cb530b7f9303f88ce
Actual   Sig R: ef3d3d84744c6d77e17f08998d99be604c941527359ca63cb530b7f9303f88ce
Expected Sig S: 05852d5c28177c95b2c8a546d1cc36918ac2473443fdf49adc2cb56cc8c8e6e7
Actual   Sig S: 05852d5c28177c95b2c8a546d1cc36918ac2473443fdf49adc2cb56cc8c8e6e7
>> PubKey Check: PASS
>> TC3 Result: PASS (All checks passed)
Time:          18631865000 | State:  0 | Done: 1
Time:          18631875000 | State:  0 | Done: 0

--- TEST CASE 4: Random Input (msg_len=23) ---
Time:          18632005000 | State:  2 | Done: 0
[Time          18632325000] SHAKE DONE asserted. DOUT: dd92f8a33e1cd22c89b4c3ff80eff11be374db16d2b85b899fdfecb32166e24cf0d5958e1f29434a283798932e997a027d431bc8d2e65540262e0a44e548144d
            DIN: 000000000000000000000000000000000000000000000000000000000000000000000000000000000000000000000000000000000000000000000000000000000000000000000000000000000000000000000000000000000000000000000000324661f16342eff6b3a8fe0025fb8571dd90a06ae2c38d38e6f80a1da9b0e2fb
Time:          18632335000 | State:  3 | Done: 0
Time:          18632345000 | State:  4 | Done: 0
Time:          21255625000 | State:  5 | Done: 0
Time:          21611255000 | State:  6 | Done: 0
Time:          21611945000 | State: 19 | Done: 0
Time:          21611955000 | State: 20 | Done: 0
Time:          21612645000 | State:  8 | Done: 0
[Time          21612965000] SHAKE DONE asserted. DOUT: 05a5d9d5bb910ba1783ed461bd68e775f85801459bc466fa6e008c0c31df195780266c87b4b7c3621e8e8bc99675716a62ca47da9c0c119e1ff7bf728a5b5c91
            DIN: 000000000000000000000000000000000000000000000000000000000000000000000000000000000000000000000000000000000000000000000000000000002673251f74db63d402f68da360bf21f28c6a70095e88df000000000000000000dd92f8a33e1cd22c89b4c3ff80eff11be374db16d2b85b899fdfecb32166e24c
Time:          21612975000 | State:  9 | Done: 0
Time:          21623245000 | State: 10 | Done: 0
Time:          21623255000 | State: 25 | Done: 0
Time:          21623265000 | State: 11 | Done: 0
Time:          24375775000 | State: 12 | Done: 0
Time:          24731405000 | State: 13 | Done: 0
Time:          24732095000 | State: 21 | Done: 0
Time:          24732105000 | State: 22 | Done: 0
Time:          24732795000 | State: 15 | Done: 0
[Time          24733115000] SHAKE DONE asserted. DOUT: 0beb6f0511d47331a634448d119371f052214e2202c50a71ed245428f35bec8c7b421a6b0912fe943aac676e9c24fce4fd6ea16b9d0ce2e36321f38cd0017ccf
            DIN: 0000000000000000000000000000000000000000000000000000000000000000000000000000000000df885e09706a8cf221bf60a38df602d463db741f2573265e5bc952a95aff14d87ddca035aabc1b0c77b5a7b2273a95cc38ccdb45e7fbf8373af4073f6107d8fea3c807887166d9f7d93e99f3fe4a277863415660e20425
Time:          24733125000 | State: 16 | Done: 0
Time:          24743395000 | State: 17 | Done: 0
Time:          24756285000 | State: 18 | Done: 0
Time:          24756295000 | State: 23 | Done: 1
Sig R: 373af4073f6107d8fea3c807887166d9f7d93e99f3fe4a277863415660e20425
Sig S: 0ea357a751c5a3897905d36b4119bb0a2d9da3d423d3f9af8a33af6735b30701
>> TC4 Complete (no crash)
Time:          24756305000 | State:  0 | Done: 1
Time:          24756315000 | State:  0 | Done: 0

--- TEST CASE 5: Random Input (msg_len=12) ---
Time:          24756445000 | State:  2 | Done: 0
[Time          24756765000] SHAKE DONE asserted. DOUT: 7f39aafdebdcf0a26d6dbcf9a5bf53ec620a82da1fd0b40adfd215e0f31812193aab63bb3b75b830d212561ce51afb79b330288c89efbec96705a8bfce20a268
            DIN: 000000000000000000000000000000000000000000000000000000000000000000000000000000000000000000000000000000000000000000000000000000000000000000000000000000000000000000000000000000000000000000000000d31e891b141f733ca9af290117bbbadf57b7697c3878fa9e875dd544eb4b5b43
Time:          24756775000 | State:  3 | Done: 0
Time:          24756785000 | State:  4 | Done: 0
Time:          27523665000 | State:  5 | Done: 0
Time:          27879295000 | State:  6 | Done: 0
Time:          27879985000 | State: 19 | Done: 0
Time:          27879995000 | State: 20 | Done: 0
Time:          27880685000 | State:  8 | Done: 0
[Time          27881005000] SHAKE DONE asserted. DOUT: b7e0370f9e7b0d4d88223bce3245a22035d000fe06010b7bb4c262df35527eb3d91f2618d592fd0977eb80953fb5b789eb3a5a7ea9b909ad4c8c7e80cb908d35
            DIN: 000000000000000000000000000000000000000000000000000000000000000000000000000000000000000000000000000000000000000000000000000000006bed361572f2e10aace2f32200000000000000000000000000000000000000007f39aafdebdcf0a26d6dbcf9a5bf53ec620a82da1fd0b40adfd215e0f3181219
Time:          27881015000 | State:  9 | Done: 0
Time:          27891285000 | State: 10 | Done: 0
Time:          27891295000 | State: 25 | Done: 0
Time:          27891305000 | State: 11 | Done: 0
Time:          30636635000 | State: 12 | Done: 0
Time:          30992265000 | State: 13 | Done: 0
Time:          30992955000 | State: 21 | Done: 0
Time:          30992965000 | State: 22 | Done: 0
Time:          30993655000 | State: 15 | Done: 0
[Time          30993975000] SHAKE DONE asserted. DOUT: e5729de74aedd72b7b3dfa5b5bf929f2396ef891c280a7b4bcedf10c5a606ee1b2e62cf37ec623f4ecb929d162c90aabf7cea3f2260522dc72334a35ec80f01f
            DIN: 0000000000000000000000000000000000000000000000000000000000000000000000000000000000000000000000000000000022f3e2ac0ae1f2721536ed6b9598703d67a41fcf2f21d5a4e2f21114c0c6ab9633dc5017e8f0c3cb4b993f4b65382d463147ff3166e79018ed0e54938342b94e89fe213ca17f5494689cff0d
Time:          30993985000 | State: 16 | Done: 0
Time:          31004255000 | State: 17 | Done: 0
Time:          31017145000 | State: 18 | Done: 0
Time:          31017155000 | State: 23 | Done: 1
Sig R: 65382d463147ff3166e79018ed0e54938342b94e89fe213ca17f5494689cff0d
Sig S: 0a497467f59d6826b83e9e7432448609aaa0ab43effc8eaf9ce38a08f0a95ae4
>> TC5 Complete (no crash)
Time:          31017165000 | State:  0 | Done: 1
Time:          31017175000 | State:  0 | Done: 0

--- TEST CASE 6: Random Input (msg_len=24) ---
Time:          31017305000 | State:  2 | Done: 0
[Time          31017625000] SHAKE DONE asserted. DOUT: 7862d3c3c6b75255f02b83081ae9a87967a41a1db676eca6ade00c4fb5da56f6aa19d970916dfcc007f6d5e5adfd949eefab81c95fda1929b480eca2c3b5aa76
            DIN: 000000000000000000000000000000000000000000000000000000000000000000000000000000000000000000000000000000000000000000000000000000000000000000000000000000000000000000000000000000000000000000000000607a70d27004523d5914fb6bc506e83dcf04cac3aebba863022604077c3bf574
Time:          31017635000 | State:  3 | Done: 0
Time:          31017645000 | State:  4 | Done: 0
Time:          33813245000 | State:  5 | Done: 0
Time:          34168875000 | State:  6 | Done: 0
Time:          34169565000 | State: 19 | Done: 0
Time:          34169575000 | State: 20 | Done: 0
Time:          34170265000 | State:  8 | Done: 0
[Time          34170585000] SHAKE DONE asserted. DOUT: 75458a3730ae9591faacf0b32fe64a2cf9708b38c64a191d3b4c29508e3c6560a6c9e7da554d996224f232d947178f78b70da33eaec02741086e63f1d5d96cb9
            DIN: 00000000000000000000000000000000000000000000000000000000000000000000000000000000000000000000000000000000000000000000000000000000b36877ff33379d04c7ce56994ca6e17d3e11f9db32b148fd00000000000000007862d3c3c6b75255f02b83081ae9a87967a41a1db676eca6ade00c4fb5da56f6
Time:          34170595000 | State:  9 | Done: 0
Time:          34180865000 | State: 10 | Done: 0
Time:          34180875000 | State: 25 | Done: 0
Time:          34180885000 | State: 11 | Done: 0
Time:          36962115000 | State: 12 | Done: 0
Time:          37317745000 | State: 13 | Done: 0
Time:          37318435000 | State: 21 | Done: 0
Time:          37318445000 | State: 22 | Done: 0
Time:          37319135000 | State: 15 | Done: 0
[Time          37319455000] SHAKE DONE asserted. DOUT: 2631ff662a5bafea673819fcb1d95922443c57efff9acc220b08195e904fba1ce86b85f81d9560b0f7e8e8962d750cc8b65cddebe51f331b986133ecb4c6c91f
            DIN: 00000000000000000000000000000000000000000000000000000000000000000000000000000000fd48b132dbf9113e7de1a64c9956cec7049d3733ff7768b3d9a09a4bd2206e9d3f2ad35ad29d7d72796bccb75e6bc7603d4c14c3e27ccbdbbdeb9b3177b2d4a10ebb2ecf6632a8d18eb7e22e5b873abac95cf0634ac12e62
Time:          37319465000 | State: 16 | Done: 0
Time:          37329735000 | State: 17 | Done: 0
Time:          37342625000 | State: 18 | Done: 0
Time:          37342635000 | State: 23 | Done: 1
Sig R: bdeb9b3177b2d4a10ebb2ecf6632a8d18eb7e22e5b873abac95cf0634ac12e62
Sig S: 01dd3006f8819a78fd6ecf21f351346f5f68517353a85f43383b48ef32e2b7d0
>> TC6 Complete (no crash)
Time:          37342645000 | State:  0 | Done: 1
Time:          37342655000 | State:  0 | Done: 0

--- TEST CASE 7: Random Input (msg_len=23) ---
Time:          37342785000 | State:  2 | Done: 0
[Time          37343105000] SHAKE DONE asserted. DOUT: d54c395c487c5b498dab3d1722107d83e247db0609d0271287c074005cb3c9ceba8f196971f503d324aeac359ec1f7957d42bef0cf9ab88e3bd315bbc37d7031
            DIN: 000000000000000000000000000000000000000000000000000000000000000000000000000000000000000000000000000000000000000000000000000000000000000000000000000000000000000000000000000000000000000000000000817f77dc7a7d10a44d8a7c3b8948feb1718989a3f57056fcf409f872e47e6297
Time:          37343115000 | State:  3 | Done: 0
Time:          37343125000 | State:  4 | Done: 0
Time:          40167445000 | State:  5 | Done: 0
Time:          40523075000 | State:  6 | Done: 0
Time:          40523765000 | State: 19 | Done: 0
Time:          40523775000 | State: 20 | Done: 0
Time:          40524465000 | State:  8 | Done: 0
[Time          40524785000] SHAKE DONE asserted. DOUT: b42a74fcadc1053b647c3a28b21861f920d1b92c4e056a35b24a1f404640fec38f77c1f7e97e5e47bc94fa2f1a00d3d829956d83229b65593e07b32d12fa4131
            DIN: 000000000000000000000000000000000000000000000000000000000000000000000000000000000000000000000000000000000000000000000000000000009b726ebf6b0345dba0c1e1ec5f3f1d57f0de7c129f4920000000000000000000d54c395c487c5b498dab3d1722107d83e247db0609d0271287c074005cb3c9ce
Time:          40524795000 | State:  9 | Done: 0
Time:          40535065000 | State: 10 | Done: 0
Time:          40535075000 | State: 25 | Done: 0
Time:          40535085000 | State: 11 | Done: 0
Time:          43395295000 | State: 12 | Done: 0
Time:          43750925000 | State: 13 | Done: 0
Time:          43751615000 | State: 21 | Done: 0
Time:          43751625000 | State: 22 | Done: 0
Time:          43752315000 | State: 15 | Done: 0
[Time          43752635000] SHAKE DONE asserted. DOUT: bbb97df6ee34a9be56d0aed7834dd76d16fe38db5c585a171fc1a6ab1863d0a589aac75451d27db0f2b160808745fff5241d39636980bc11cd2dcf6c935b4cbd
            DIN: 000000000000000000000000000000000000000000000000000000000000000000000000000000000020499f127cdef0571d3f5fece1c1a0db45036bbf6e729b83cb6ad135fdb78c500ce2c33d553d27033b146b4f338b4cb4d4fe521b85c42fcdf4916c9f64c1b4ffcbcfbf26e08b91b3d9227a5290c8ecbf83f3fd1e04f5aa
Time:          43752645000 | State: 16 | Done: 0
Time:          43762915000 | State: 17 | Done: 0
Time:          43775805000 | State: 18 | Done: 0
Time:          43775815000 | State: 23 | Done: 1
Sig R: cdf4916c9f64c1b4ffcbcfbf26e08b91b3d9227a5290c8ecbf83f3fd1e04f5aa
Sig S: 0b6e828bec91a7698eb7cfd105eba03a32b67b3691f91ae9143a7014399d6c3d
>> TC7 Complete (no crash)
Time:          43775825000 | State:  0 | Done: 1
Time:          43775835000 | State:  0 | Done: 0

--- TEST CASE 8: Random Input (msg_len=24) ---
Time:          43775965000 | State:  2 | Done: 0
[Time          43776285000] SHAKE DONE asserted. DOUT: 031932c653f126e7f7e3537220f52d2658a456b75242f546f66033b956054c6e0f2c2787ed4533e7f7a3f1162d4a941a83376920cf7ad48c1428c2738658d671
            DIN: 000000000000000000000000000000000000000000000000000000000000000000000000000000000000000000000000000000000000000000000000000000000000000000000000000000000000000000000000000000000000000000000000bdaa594cf1437dfaba0e40e88c32af18fa45811af8baaf6ef2245ef1c51e2f52
Time:          43776295000 | State:  3 | Done: 0
Time:          43776305000 | State:  4 | Done: 0
Time:          46500105000 | State:  5 | Done: 0
Time:          46855735000 | State:  6 | Done: 0
Time:          46856425000 | State: 19 | Done: 0
Time:          46856435000 | State: 20 | Done: 0
Time:          46857125000 | State:  8 | Done: 0
[Time          46857445000] SHAKE DONE asserted. DOUT: 0a4cc609264891bba6e668be1bdd956ca879656fed7e4b1e17ad1e3725d928cc703534487bb79471b8fd6eb4bceee7c0acd97627eeb167b21b606edde96db0fb
            DIN: 000000000000000000000000000000000000000000000000000000000000000000000000000000000000000000000000000000000000000000000000000000003f53c0b53964fbdd3cfdd13acf50ca1aa306d064278e38490000000000000000031932c653f126e7f7e3537220f52d2658a456b75242f546f66033b956054c6e
Time:          46857455000 | State:  9 | Done: 0
Time:          46867725000 | State: 10 | Done: 0
Time:          46867735000 | State: 25 | Done: 0
Time:          46867745000 | State: 11 | Done: 0
Time:          49591535000 | State: 12 | Done: 0
Time:          49947165000 | State: 13 | Done: 0
Time:          49947855000 | State: 21 | Done: 0
Time:          49947865000 | State: 22 | Done: 0
Time:          49948555000 | State: 15 | Done: 0
[Time          49948875000] SHAKE DONE asserted. DOUT: 4230fdc6d2ce6254c1e862fc75f32fcc62be76e7d92d402f47034f8db193a4c18650f0419455143d026acd0a5f7235e9c8ecc7330f89949ad820ef5b3703d6a5
            DIN: 0000000000000000000000000000000000000000000000000000000000000000000000000000000049388e2764d006a31aca50cf3ad1fd3cddfb6439b5c0533f854c0826da914648c7531b1256aad4b831cd29f972a03a4440e0b4d00b4b992ce0240e75cec035179584957019eb02bed3198aab36f4a550c3ca0e2b466dabcf
Time:          49948885000 | State: 16 | Done: 0
Time:          49959155000 | State: 17 | Done: 0
Time:          49972045000 | State: 18 | Done: 0
Time:          49972055000 | State: 23 | Done: 1
Sig R: e0240e75cec035179584957019eb02bed3198aab36f4a550c3ca0e2b466dabcf
Sig S: 06ce73dc06bedb157055622d5c6e709611ec8a271393ddf696d379ac2045a2b9
>> TC8 Complete (no crash)
Time:          49972065000 | State:  0 | Done: 1
Time:          49972075000 | State:  0 | Done: 0

--- TEST CASE 9: Random Input (msg_len=21) ---
Time:          49972205000 | State:  2 | Done: 0
[Time          49972525000] SHAKE DONE asserted. DOUT: 59f20c330e3861e932c79b2d69cd60e0655f5737e13900cd78179e21e3f7f027ca3a92f180e997608033f45278028857429602d3e03844bd7675e61cfab95347
            DIN: 00000000000000000000000000000000000000000000000000000000000000000000000000000000000000000000000000000000000000000000000000000000000000000000000000000000000000000000000000000000000000000000000056676552581c6f529461180086a27196e14ff2cfa68c79cf4644fb25b2e95de8
Time:          49972535000 | State:  3 | Done: 0
Time:          49972545000 | State:  4 | Done: 0
Time:          52617365000 | State:  5 | Done: 0
Time:          52972995000 | State:  6 | Done: 0
Time:          52973685000 | State: 19 | Done: 0
Time:          52973695000 | State: 20 | Done: 0
Time:          52974385000 | State:  8 | Done: 0
[Time          52974705000] SHAKE DONE asserted. DOUT: df94d0033eb83bb99cb001c72a5f66c6b86940fce5b25d2f193f049eb3daa9651e1fafe63821f617d23fda1beb8710550b96c142de8f5ee04b8374da9c16aec2
            DIN: 00000000000000000000000000000000000000000000000000000000000000000000000000000000000000000000000000000000000000000000000000000000da757f8c182cf2a39c5769ea8c90e97bcb2798d824000000000000000000000059f20c330e3861e932c79b2d69cd60e0655f5737e13900cd78179e21e3f7f027
Time:          52974715000 | State:  9 | Done: 0
Time:          52984985000 | State: 10 | Done: 0
Time:          52984995000 | State: 25 | Done: 0
Time:          52985005000 | State: 11 | Done: 0
Time:          55694435000 | State: 12 | Done: 0
Time:          56050065000 | State: 13 | Done: 0
Time:          56050755000 | State: 21 | Done: 0
Time:          56050765000 | State: 22 | Done: 0
Time:          56051455000 | State: 15 | Done: 0
[Time          56051775000] SHAKE DONE asserted. DOUT: 4fa54fbfe93989a0758571cc2bf6dacfc8578819f7c45b1a4b4149c5e8d7f9805deb17f94dcd3b4f14998b6c73bb07465122a819bcb761594b3a9cd54eb267a9
            DIN: 0000000000000000000000000000000000000000000000000000000000000000000000000000000000000024d89827cb7be9908cea69579ca3f22c188c7f75da634bc7c80496ac86429cecc104b8453221ab8452d372ce2f43688aca72e62c7bc3b4540048d57b91d8ed32aafaa2a70b052959eacfe3f739391d2db386e33b3d
Time:          56051785000 | State: 16 | Done: 0
Time:          56062055000 | State: 17 | Done: 0
Time:          56074945000 | State: 18 | Done: 0
Time:          56074955000 | State: 23 | Done: 1
Sig R: c3b4540048d57b91d8ed32aafaa2a70b052959eacfe3f739391d2db386e33b3d
Sig S: 013fc7fabdb78199edb5cd43576150947140dab1f959a515218c3b881cbe04e0
>> TC9 Complete (no crash)
Time:          56074965000 | State:  0 | Done: 1
Time:          56074975000 | State:  0 | Done: 0

--- TEST CASE 10: Random Input (msg_len=7) ---
Time:          56075105000 | State:  2 | Done: 0
[Time          56075425000] SHAKE DONE asserted. DOUT: 7a139c192e47e36e864caac5c394932e420e977671ea808b02a6e7d35dd2a90ed2955d3a807cb3c5e52b852282ff230ac82cc3137c4c5ac098700c4e33ca0ae1
            DIN: 00000000000000000000000000000000000000000000000000000000000000000000000000000000000000000000000000000000000000000000000000000000000000000000000000000000000000000000000000000000000000000000000046939cfc5d66d97773a3408cb43eb538b62801d55eeda934c0684bf5989c78df
Time:          56075435000 | State:  3 | Done: 0
Time:          56075445000 | State:  4 | Done: 0
Time:          58713085000 | State:  5 | Done: 0
Time:          59068715000 | State:  6 | Done: 0
Time:          59069405000 | State: 19 | Done: 0
Time:          59069415000 | State: 20 | Done: 0
Time:          59070105000 | State:  8 | Done: 0
[Time          59070425000] SHAKE DONE asserted. DOUT: 9470033f9e4532eef52fdaed2cc44b4a3e172848c088de1aff1d6450c808410726559e6f7a781e1f0c91ce1251729f08a9df9d4e835d04a6a67dd13dc8295123
            DIN: 00000000000000000000000000000000000000000000000000000000000000000000000000000000000000000000000000000000000000000000000000000000b3ad55c9871c2f000000000000000000000000000000000000000000000000007a139c192e47e36e864caac5c394932e420e977671ea808b02a6e7d35dd2a90e
Time:          59070435000 | State:  9 | Done: 0
Time:          59080705000 | State: 10 | Done: 0
Time:          59080715000 | State: 25 | Done: 0
Time:          59080725000 | State: 11 | Done: 0
Time:          61826055000 | State: 12 | Done: 0
Time:          62181685000 | State: 13 | Done: 0
Time:          62182375000 | State: 21 | Done: 0
Time:          62182385000 | State: 22 | Done: 0
Time:          62183075000 | State: 15 | Done: 0
[Time          62183395000] SHAKE DONE asserted. DOUT: 3d34890e800e977c204da5ddd8fae050d2b1568c48c95a5d9908a915d43f3967e40e8a2c1ff14878727c67119b6b7af3d71da1033572eeb68b88956e842e343f
            DIN: 0000000000000000000000000000000000000000000000000000000000000000000000000000000000000000000000000000000000000000002f1c87c955adb306d48c9eb11c5cd176d005d90276cc52dd09420ee5047062a82f254af0be91c29505a3d404b611dc5e82161a7e892ca7953e8a733c9f9b0f5625fad3d9f50431
Time:          62183405000 | State: 16 | Done: 0
Time:          62193675000 | State: 17 | Done: 0
Time:          62206565000 | State: 18 | Done: 0
Time:          62206575000 | State: 23 | Done: 1
Sig R: 9505a3d404b611dc5e82161a7e892ca7953e8a733c9f9b0f5625fad3d9f50431
Sig S: 048c115907dff9971e4426949f50bb1a974f630ea7172dcb3cc164ef5b5d6c85
>> TC10 Complete (no crash)
Time:          62206585000 | State:  0 | Done: 1
Time:          62206595000 | State:  0 | Done: 0

--- TEST CASE 11: Random Input (msg_len=21) ---
Time:          62206725000 | State:  2 | Done: 0
[Time          62207045000] SHAKE DONE asserted. DOUT: 8dcd6b9f8fa9ce856b798b3b8cfe617d2f6f5ad02fa656b6649416faa54fc6cb1c4823c21fd6fdbed5f5fa4063504e99975fed2c7245f1cb40ccaff4e8a5140d
            DIN: 0000000000000000000000000000000000000000000000000000000000000000000000000000000000000000000000000000000000000000000000000000000000000000000000000000000000000000000000000000000000000000000000008133a08bbfeea52b1ce2296468f6f06a22bfef2914160c5bbbc49ca53ca7f6f0
Time:          62207055000 | State:  3 | Done: 0
Time:          62207065000 | State:  4 | Done: 0
Time:          64981125000 | State:  5 | Done: 0
Time:          65336755000 | State:  6 | Done: 0
Time:          65337445000 | State: 19 | Done: 0
Time:          65337455000 | State: 20 | Done: 0
Time:          65338145000 | State:  8 | Done: 0
[Time          65338465000] SHAKE DONE asserted. DOUT: 3406ffe840e5bb19e427794c28cbc592ff20a17bb925b7c87c31863a7e70eb179d809a0a5830d8a18725018a9cdfe9159423d347b3c79cabcd3f0908abfb5d20
            DIN: 00000000000000000000000000000000000000000000000000000000000000000000000000000000000000000000000000000000000000000000000000000000cbd72a32d2717e6b805b369dcb1e967d2ab111a55d00000000000000000000008dcd6b9f8fa9ce856b798b3b8cfe617d2f6f5ad02fa656b6649416faa54fc6cb
Time:          65338475000 | State:  9 | Done: 0
Time:          65348745000 | State: 10 | Done: 0
Time:          65348755000 | State: 25 | Done: 0
